…
We may read all 8 files in **paths** at once using the **read\_delim()**
function and mapping it using **map()** onto each entry. Note that we
arrived at the correct parameters for **read\_delim()** by inspecting
some of the *.txt* files using the system viewer:

    data <- paths %>%
      map(read_delim, delim = " ", trim_ws = TRUE, col_names = FALSE)

Each individual data frame (or tibble to be precise, as we are using
**read\_delim()** from the **readr** package) can be accessed within the
list using its name, e.g. 

    data$features

    ## # A tibble: 561 x 2
    ##       X1 X2               
    ##    <dbl> <chr>            
    ##  1     1 tBodyAcc-mean()-X
    ##  2     2 tBodyAcc-mean()-Y
    ##  3     3 tBodyAcc-mean()-Z
    ##  4     4 tBodyAcc-std()-X 
    ##  5     5 tBodyAcc-std()-Y 
    ##  6     6 tBodyAcc-std()-Z 
    ##  7     7 tBodyAcc-mad()-X 
    ##  8     8 tBodyAcc-mad()-Y 
    ##  9     9 tBodyAcc-mad()-Z 
    ## 10    10 tBodyAcc-max()-X 
    ## # ... with 551 more rows
…
